{
      "banking": {
            "connections": [{
                  "id": 331266,
                  "bankId": 277672,
                  "bank": {
                        "id": 277672,
                        "name": "FinAPI Test Bank",
                        "loginHint": null,
                        "bic": null,
                        "blz": "00000000",
                        "blzs": ["00000000"],
                        "loginFieldUserId": "Onlinebanking-ID",
                        "loginFieldCustomerId": null,
                        "loginFieldPin": "PIN",
                        "isSupported": true,
                        "supportedDataSources": ["FINTS_SERVER"],
                        "pinsAreVolatile": false,
                        "location": null,
                        "city": null,
                        "isTestBank": true,
                        "popularity": 9,
                        "health": 100,
                        "lastCommunicationAttempt": "2018-07-10 07:53:00.000",
                        "lastSuccessfulCommunication": "2018-07-10 07:53:00.000"
                  },
                  "name": "Mein Konto",
                  "bankingUserId": "XXXXX",
                  "bankingCustomerId": null,
                  "bankingPin": "XXXXX",
                  "type": "DEMO",
                  "updateStatus": "READY",
                  "categorizationStatus": "READY",
                  "lastManualUpdate": null,
                  "lastAutoUpdate": null,
                  "twoStepProcedures": [],
                  "ibanOnlyMoneyTransferSupported": false,
                  "ibanOnlyDirectDebitSupported": false,
                  "collectiveMoneyTransferSupported": false,
                  "defaultTwoStepProcedureId": null,
                  "accountIds": [548730],
                  "owners": null
            }],
            "accounts": [{
                  "id": 548730,
                  "bankConnectionId": 331266,
                  "accountName": "Testaccount",
                  "accountNumber": "12345678",
                  "subAccountNumber": "Testaccount",
                  "iban": null,
                  "accountHolderName": null,
                  "accountHolderId": null,
                  "accountCurrency": null,
                  "accountTypeId": 1,
                  "accountTypeName": "Checking",
                  "balance": 1422.89,
                  "overdraft": null,
                  "overdraftLimit": null,
                  "availableFunds": null,
                  "lastSuccessfulUpdate": "2018-07-10 05:48:30.000",
                  "lastUpdateAttempt": "2018-07-10 05:48:22.000",
                  "isNew": true,
                  "status": "UPDATED",
                  "supportedOrders": [],
                  "clearingAccounts": []
            }],
            "loading": false,
            "transactions": {
                  "548730": {
                        "loading": false,
                        "items": [{
                              "id": 115372164,
                              "parentId": null,
                              "accountId": 548730,
                              "valueDate": "2014-04-25 00:00:00.000",
                              "bankBookingDate": "2014-04-25 00:00:00.000",
                              "finapiBookingDate": "2014-04-25 00:00:00.000",
                              "amount": -89.81,
                              "purpose": "RE. 745259",
                              "counterpartName": "TueV Bayern",
                              "counterpartAccountNumber": "611105",
                              "counterpartIban": "DE13700800000061110500",
                              "counterpartBlz": "70080000",
                              "counterpartBic": "DRESDEFF700",
                              "counterpartBankName": "Commerzbank vormals Dresdner Bank",
                              "counterpartMandateReference": null,
                              "counterpartCustomerReference": null,
                              "counterpartCreditorId": null,
                              "type": null,
                              "typeCodeZka": null,
                              "typeCodeSwift": "Überweisungsauftrag",
                              "primanota": null,
                              "category": {
                                    "id": 524,
                                    "name": "KFZ-Sonstige",
                                    "parentId": 301,
                                    "parentName": "Mobilität",
                                    "isCustom": false,
                                    "children": null
                              },
                              "labels": [],
                              "isPotentialDuplicate": false,
                              "isAdjustingEntry": false,
                              "isNew": true,
                              "importDate": "2018-07-10 05:48:22.000",
                              "children": null,
                              "paypalData": null
                        }, {
                              "id": 115372165,
                              "parentId": null,
                              "accountId": 548730,
                              "valueDate": "2014-08-25 00:00:00.000",
                              "bankBookingDate": "2014-08-25 00:00:00.000",
                              "finapiBookingDate": "2014-08-25 00:00:00.000",
                              "amount": -89.81,
                              "purpose": "RE. 745259",
                              "counterpartName": "TueV Bayern",
                              "counterpartAccountNumber": "611105",
                              "counterpartIban": "DE13700800000061110500",
                              "counterpartBlz": "70080000",
                              "counterpartBic": "DRESDEFF700",
                              "counterpartBankName": "Commerzbank vormals Dresdner Bank",
                              "counterpartMandateReference": null,
                              "counterpartCustomerReference": null,
                              "counterpartCreditorId": null,
                              "type": null,
                              "typeCodeZka": null,
                              "typeCodeSwift": "Überweisungsauftrag",
                              "primanota": null,
                              "category": {
                                    "id": 524,
                                    "name": "KFZ-Sonstige",
                                    "parentId": 301,
                                    "parentName": "Mobilität",
                                    "isCustom": false,
                                    "children": null
                              },
                              "labels": [],
                              "isPotentialDuplicate": false,
                              "isAdjustingEntry": false,
                              "isNew": true,
                              "importDate": "2018-07-10 05:48:22.000",
                              "children": null,
                              "paypalData": null
                        }, {
                              "id": 115372166,
                              "parentId": null,
                              "accountId": 548730,
                              "valueDate": "2014-12-26 00:00:00.000",
                              "bankBookingDate": "2014-12-26 00:00:00.000",
                              "finapiBookingDate": "2014-12-26 00:00:00.000",
                              "amount": -349,
                              "purpose": "Kreditkartenabr.",
                              "counterpartName": "Bankhaus Max Flessa und Co",
                              "counterpartAccountNumber": "1444430",
                              "counterpartIban": "DE78700800000144443000",
                              "counterpartBlz": "70080000",
                              "counterpartBic": "DRESDEFF700",
                              "counterpartBankName": "Commerzbank vormals Dresdner Bank",
                              "counterpartMandateReference": null,
                              "counterpartCustomerReference": null,
                              "counterpartCreditorId": null,
                              "type": null,
                              "typeCodeZka": null,
                              "typeCodeSwift": "Überweisungsauftrag",
                              "primanota": null,
                              "category": {
                                    "id": 373,
                                    "name": "Freizeit, Hobbies & Soziales",
                                    "parentId": null,
                                    "parentName": null,
                                    "isCustom": false,
                                    "children": [376, 378, 380, 535]
                              },
                              "labels": [],
                              "isPotentialDuplicate": false,
                              "isAdjustingEntry": false,
                              "isNew": true,
                              "importDate": "2018-07-10 05:48:22.000",
                              "children": null,
                              "paypalData": null
                        }, {
                              "id": 115372167,
                              "parentId": null,
                              "accountId": 548730,
                              "valueDate": "2014-12-27 00:00:00.000",
                              "bankBookingDate": "2014-12-27 00:00:00.000",
                              "finapiBookingDate": "2014-12-27 00:00:00.000",
                              "amount": -264.21,
                              "purpose": "Vielen Dank",
                              "counterpartName": "Hackerhaus an der Oper",
                              "counterpartAccountNumber": "1245155",
                              "counterpartIban": "DE68700800000124515500",
                              "counterpartBlz": "70080000",
                              "counterpartBic": "DRESDEFF700",
                              "counterpartBankName": "Commerzbank vormals Dresdner Bank",
                              "counterpartMandateReference": null,
                              "counterpartCustomerReference": null,
                              "counterpartCreditorId": null,
                              "type": null,
                              "typeCodeZka": null,
                              "typeCodeSwift": "Überweisungsauftrag",
                              "primanota": null,
                              "category": {
                                    "id": 535,
                                    "name": "Freizeitaktivitäten",
                                    "parentId": 373,
                                    "parentName": "Freizeit, Hobbies & Soziales",
                                    "isCustom": false,
                                    "children": null
                              },
                              "labels": [],
                              "isPotentialDuplicate": false,
                              "isAdjustingEntry": false,
                              "isNew": true,
                              "importDate": "2018-07-10 05:48:22.000",
                              "children": null,
                              "paypalData": null
                        }, {
                              "id": 115372168,
                              "parentId": null,
                              "accountId": 548730,
                              "valueDate": "2014-12-27 00:00:00.000",
                              "bankBookingDate": "2014-12-27 00:00:00.000",
                              "finapiBookingDate": "2014-12-27 00:00:00.000",
                              "amount": -24.48,
                              "purpose": "ZAHLBELEG 378896249168",
                              "counterpartName": "TELEKOM DEUTSCHLAND GMBH",
                              "counterpartAccountNumber": "1333320",
                              "counterpartIban": "DE37700800000133332000",
                              "counterpartBlz": "70080000",
                              "counterpartBic": "DRESDEFF700",
                              "counterpartBankName": "Commerzbank vormals Dresdner Bank",
                              "counterpartMandateReference": null,
                              "counterpartCustomerReference": null,
                              "counterpartCreditorId": null,
                              "type": null,
                              "typeCodeZka": null,
                              "typeCodeSwift": "Überweisungsauftrag",
                              "primanota": null,
                              "category": {
                                    "id": 404,
                                    "name": "Festnetz & Internet",
                                    "parentId": 401,
                                    "parentName": "Lebenshaltung",
                                    "isCustom": false,
                                    "children": null
                              },
                              "labels": [],
                              "isPotentialDuplicate": false,
                              "isAdjustingEntry": false,
                              "isNew": true,
                              "importDate": "2018-07-10 05:48:22.000",
                              "children": null,
                              "paypalData": null
                        }, {
                              "id": 115372169,
                              "parentId": null,
                              "accountId": 548730,
                              "valueDate": "2014-12-28 00:00:00.000",
                              "bankBookingDate": "2014-12-28 00:00:00.000",
                              "finapiBookingDate": "2014-12-28 00:00:00.000",
                              "amount": -806.11,
                              "purpose": "Catering 17.12. Vielen Dank",
                              "counterpartName": "Wirtshaus in der Au",
                              "counterpartAccountNumber": "1055545",
                              "counterpartIban": "DE80700800000105554500",
                              "counterpartBlz": "70080000",
                              "counterpartBic": "DRESDEFF700",
                              "counterpartBankName": "Commerzbank vormals Dresdner Bank",
                              "counterpartMandateReference": null,
                              "counterpartCustomerReference": null,
                              "counterpartCreditorId": null,
                              "type": null,
                              "typeCodeZka": null,
                              "typeCodeSwift": "Überweisungsauftrag",
                              "primanota": null,
                              "category": {
                                    "id": 378,
                                    "name": "Restaurant / Cafe / Bar",
                                    "parentId": 373,
                                    "parentName": "Freizeit, Hobbies & Soziales",
                                    "isCustom": false,
                                    "children": null
                              },
                              "labels": [],
                              "isPotentialDuplicate": false,
                              "isAdjustingEntry": false,
                              "isNew": true,
                              "importDate": "2018-07-10 05:48:22.000",
                              "children": null,
                              "paypalData": null
                        }, {
                              "id": 115372170,
                              "parentId": null,
                              "accountId": 548730,
                              "valueDate": "2015-01-01 00:00:00.000",
                              "bankBookingDate": "2015-01-01 00:00:00.000",
                              "finapiBookingDate": "2015-01-01 00:00:00.000",
                              "amount": 5421.63,
                              "purpose": "Lohn und Gehalt",
                              "counterpartName": "Braumüller GmbH",
                              "counterpartAccountNumber": "5564789",
                              "counterpartIban": "DE63700800000556478900",
                              "counterpartBlz": "70080000",
                              "counterpartBic": "DRESDEFF700",
                              "counterpartBankName": "Commerzbank vormals Dresdner Bank",
                              "counterpartMandateReference": null,
                              "counterpartCustomerReference": null,
                              "counterpartCreditorId": null,
                              "type": null,
                              "typeCodeZka": null,
                              "typeCodeSwift": "Überweisungsgutschrift",
                              "primanota": null,
                              "category": {
                                    "id": 323,
                                    "name": "Gehalt",
                                    "parentId": 320,
                                    "parentName": "Einnahmen",
                                    "isCustom": false,
                                    "children": null
                              },
                              "labels": [],
                              "isPotentialDuplicate": false,
                              "isAdjustingEntry": false,
                              "isNew": true,
                              "importDate": "2018-07-10 05:48:22.000",
                              "children": null,
                              "paypalData": null
                        }, {
                              "id": 115372171,
                              "parentId": null,
                              "accountId": 548730,
                              "valueDate": "2015-01-01 00:00:00.000",
                              "bankBookingDate": "2015-01-01 00:00:00.000",
                              "finapiBookingDate": "2015-01-01 00:00:00.000",
                              "amount": -100,
                              "purpose": "GA 470/11",
                              "counterpartName": "Barabhebung",
                              "counterpartAccountNumber": "569",
                              "counterpartIban": "DE90700800000000000569",
                              "counterpartBlz": "70080000",
                              "counterpartBic": "DRESDEFF700",
                              "counterpartBankName": "Commerzbank vormals Dresdner Bank",
                              "counterpartMandateReference": null,
                              "counterpartCustomerReference": null,
                              "counterpartCreditorId": null,
                              "type": null,
                              "typeCodeZka": null,
                              "typeCodeSwift": "Überweisungsauftrag",
                              "primanota": null,
                              "category": {
                                    "id": 335,
                                    "name": "Barauszahlung",
                                    "parentId": 333,
                                    "parentName": "Bank & Kredit",
                                    "isCustom": false,
                                    "children": null
                              },
                              "labels": [],
                              "isPotentialDuplicate": false,
                              "isAdjustingEntry": false,
                              "isNew": true,
                              "importDate": "2018-07-10 05:48:22.000",
                              "children": null,
                              "paypalData": null
                        }, {
                              "id": 115372172,
                              "parentId": null,
                              "accountId": 548730,
                              "valueDate": "2015-01-02 00:00:00.000",
                              "bankBookingDate": "2015-01-02 00:00:00.000",
                              "finapiBookingDate": "2015-01-02 00:00:00.000",
                              "amount": -48.5,
                              "purpose": "Monatskarte",
                              "counterpartName": "Deutsche Bahn AG",
                              "counterpartAccountNumber": "69854321",
                              "counterpartIban": "DE05700800000069854321",
                              "counterpartBlz": "70080000",
                              "counterpartBic": "DRESDEFF700",
                              "counterpartBankName": "Commerzbank vormals Dresdner Bank",
                              "counterpartMandateReference": null,
                              "counterpartCustomerReference": null,
                              "counterpartCreditorId": null,
                              "type": null,
                              "typeCodeZka": null,
                              "typeCodeSwift": "Überweisungsauftrag",
                              "primanota": null,
                              "category": {
                                    "id": 545,
                                    "name": "Transport",
                                    "parentId": 409,
                                    "parentName": "Reisen",
                                    "isCustom": false,
                                    "children": null
                              },
                              "labels": [],
                              "isPotentialDuplicate": false,
                              "isAdjustingEntry": false,
                              "isNew": true,
                              "importDate": "2018-07-10 05:48:22.000",
                              "children": null,
                              "paypalData": null
                        }, {
                              "id": 115372173,
                              "parentId": null,
                              "accountId": 548730,
                              "valueDate": "2015-01-03 00:00:00.000",
                              "bankBookingDate": "2015-01-03 00:00:00.000",
                              "finapiBookingDate": "2015-01-03 00:00:00.000",
                              "amount": -36.23,
                              "purpose": "Vielen Dank",
                              "counterpartName": "Confetti Restaurant",
                              "counterpartAccountNumber": "4578522",
                              "counterpartIban": "DE42700800000457852200",
                              "counterpartBlz": "70080000",
                              "counterpartBic": "DRESDEFF700",
                              "counterpartBankName": "Commerzbank vormals Dresdner Bank",
                              "counterpartMandateReference": null,
                              "counterpartCustomerReference": null,
                              "counterpartCreditorId": null,
                              "type": null,
                              "typeCodeZka": null,
                              "typeCodeSwift": "Überweisungsauftrag",
                              "primanota": null,
                              "category": {
                                    "id": 378,
                                    "name": "Restaurant / Cafe / Bar",
                                    "parentId": 373,
                                    "parentName": "Freizeit, Hobbies & Soziales",
                                    "isCustom": false,
                                    "children": null
                              },
                              "labels": [],
                              "isPotentialDuplicate": false,
                              "isAdjustingEntry": false,
                              "isNew": true,
                              "importDate": "2018-07-10 05:48:22.000",
                              "children": null,
                              "paypalData": null
                        }, {
                              "id": 115372174,
                              "parentId": null,
                              "accountId": 548730,
                              "valueDate": "2015-01-04 00:00:00.000",
                              "bankBookingDate": "2015-01-04 00:00:00.000",
                              "finapiBookingDate": "2015-01-04 00:00:00.000",
                              "amount": -259.71,
                              "purpose": "Restaurantbesuch",
                              "counterpartName": "Bar Centrale",
                              "counterpartAccountNumber": "1245638",
                              "counterpartIban": "DE36700800000124563800",
                              "counterpartBlz": "70080000",
                              "counterpartBic": "DRESDEFF700",
                              "counterpartBankName": "Commerzbank vormals Dresdner Bank",
                              "counterpartMandateReference": null,
                              "counterpartCustomerReference": null,
                              "counterpartCreditorId": null,
                              "type": null,
                              "typeCodeZka": null,
                              "typeCodeSwift": "Überweisungsauftrag",
                              "primanota": null,
                              "category": {
                                    "id": 378,
                                    "name": "Restaurant / Cafe / Bar",
                                    "parentId": 373,
                                    "parentName": "Freizeit, Hobbies & Soziales",
                                    "isCustom": false,
                                    "children": null
                              },
                              "labels": [],
                              "isPotentialDuplicate": false,
                              "isAdjustingEntry": false,
                              "isNew": true,
                              "importDate": "2018-07-10 05:48:22.000",
                              "children": null,
                              "paypalData": null
                        }, {
                              "id": 115372175,
                              "parentId": null,
                              "accountId": 548730,
                              "valueDate": "2015-01-05 00:00:00.000",
                              "bankBookingDate": "2015-01-05 00:00:00.000",
                              "finapiBookingDate": "2015-01-05 00:00:00.000",
                              "amount": 700,
                              "purpose": "Umbuchung",
                              "counterpartName": "DAB bank AG",
                              "counterpartAccountNumber": "1324861",
                              "counterpartIban": "DE08700800000132486100",
                              "counterpartBlz": "70080000",
                              "counterpartBic": "DRESDEFF700",
                              "counterpartBankName": "Commerzbank vormals Dresdner Bank",
                              "counterpartMandateReference": null,
                              "counterpartCustomerReference": null,
                              "counterpartCreditorId": null,
                              "type": null,
                              "typeCodeZka": null,
                              "typeCodeSwift": "Überweisungsgutschrift",
                              "primanota": null,
                              "category": {
                                    "id": 301,
                                    "name": "Mobilität",
                                    "parentId": null,
                                    "parentName": null,
                                    "isCustom": false,
                                    "children": [306, 308, 523, 524, 525]
                              },
                              "labels": [],
                              "isPotentialDuplicate": false,
                              "isAdjustingEntry": false,
                              "isNew": true,
                              "importDate": "2018-07-10 05:48:22.000",
                              "children": null,
                              "paypalData": null
                        }, {
                              "id": 115372176,
                              "parentId": null,
                              "accountId": 548730,
                              "valueDate": "2015-01-06 00:00:00.000",
                              "bankBookingDate": "2015-01-06 00:00:00.000",
                              "finapiBookingDate": "2015-01-06 00:00:00.000",
                              "amount": -400,
                              "purpose": "Dauerauftrag: Sparen",
                              "counterpartName": "Girokonto",
                              "counterpartAccountNumber": "811346",
                              "counterpartIban": "DE56700800000081134600",
                              "counterpartBlz": "70080000",
                              "counterpartBic": "DRESDEFF700",
                              "counterpartBankName": "Commerzbank vormals Dresdner Bank",
                              "counterpartMandateReference": null,
                              "counterpartCustomerReference": null,
                              "counterpartCreditorId": null,
                              "type": null,
                              "typeCodeZka": null,
                              "typeCodeSwift": "Überweisungsauftrag",
                              "primanota": null,
                              "category": {
                                    "id": 528,
                                    "name": "Sparen & Anlegen",
                                    "parentId": null,
                                    "parentName": null,
                                    "isCustom": false,
                                    "children": [529, 530, 531, 532, 533, 534]
                              },
                              "labels": [],
                              "isPotentialDuplicate": false,
                              "isAdjustingEntry": false,
                              "isNew": true,
                              "importDate": "2018-07-10 05:48:22.000",
                              "children": null,
                              "paypalData": null
                        }, {
                              "id": 115372177,
                              "parentId": null,
                              "accountId": 548730,
                              "valueDate": "2015-01-07 00:00:00.000",
                              "bankBookingDate": "2015-01-07 00:00:00.000",
                              "finapiBookingDate": "2015-01-07 00:00:00.000",
                              "amount": -235.11,
                              "purpose": "BEITRAG KRANKENVERSICHERUNG",
                              "counterpartName": "HUK-COBURG-KRANKENVERS. AG",
                              "counterpartAccountNumber": "1445430",
                              "counterpartIban": "DE73700800000144543000",
                              "counterpartBlz": "70080000",
                              "counterpartBic": "DRESDEFF700",
                              "counterpartBankName": "Commerzbank vormals Dresdner Bank",
                              "counterpartMandateReference": null,
                              "counterpartCustomerReference": null,
                              "counterpartCreditorId": null,
                              "type": null,
                              "typeCodeZka": null,
                              "typeCodeSwift": "Überweisungsauftrag",
                              "primanota": null,
                              "category": {
                                    "id": 421,
                                    "name": "Krankenversicherung",
                                    "parentId": 418,
                                    "parentName": "Versicherung",
                                    "isCustom": false,
                                    "children": null
                              },
                              "labels": [],
                              "isPotentialDuplicate": false,
                              "isAdjustingEntry": false,
                              "isNew": true,
                              "importDate": "2018-07-10 05:48:22.000",
                              "children": null,
                              "paypalData": null
                        }, {
                              "id": 115372178,
                              "parentId": null,
                              "accountId": 548730,
                              "valueDate": "2015-01-08 00:00:00.000",
                              "bankBookingDate": "2015-01-08 00:00:00.000",
                              "finapiBookingDate": "2015-01-08 00:00:00.000",
                              "amount": -99.99,
                              "purpose": "5/12346/645",
                              "counterpartName": "ALLIANZ Lebensversicherungs AG",
                              "counterpartAccountNumber": "188982",
                              "counterpartIban": "DE58700800000018898200",
                              "counterpartBlz": "70080000",
                              "counterpartBic": "DRESDEFF700",
                              "counterpartBankName": "Commerzbank vormals Dresdner Bank",
                              "counterpartMandateReference": null,
                              "counterpartCustomerReference": null,
                              "counterpartCreditorId": null,
                              "type": null,
                              "typeCodeZka": null,
                              "typeCodeSwift": "Überweisungsauftrag",
                              "primanota": null,
                              "category": {
                                    "id": 422,
                                    "name": "Risiko-Lebensversicherung",
                                    "parentId": 418,
                                    "parentName": "Versicherung",
                                    "isCustom": false,
                                    "children": null
                              },
                              "labels": [],
                              "isPotentialDuplicate": false,
                              "isAdjustingEntry": false,
                              "isNew": true,
                              "importDate": "2018-07-10 05:48:22.000",
                              "children": null,
                              "paypalData": null
                        }, {
                              "id": 115372179,
                              "parentId": null,
                              "accountId": 548730,
                              "valueDate": "2015-01-09 00:00:00.000",
                              "bankBookingDate": "2015-01-09 00:00:00.000",
                              "finapiBookingDate": "2015-01-09 00:00:00.000",
                              "amount": 37.5,
                              "purpose": "DIVIDENDE 2014",
                              "counterpartName": "VB Musterstadt",
                              "counterpartAccountNumber": "999914",
                              "counterpartIban": "DE56700800000099991400",
                              "counterpartBlz": "70080000",
                              "counterpartBic": "DRESDEFF700",
                              "counterpartBankName": "Commerzbank vormals Dresdner Bank",
                              "counterpartMandateReference": null,
                              "counterpartCustomerReference": null,
                              "counterpartCreditorId": null,
                              "type": null,
                              "typeCodeZka": null,
                              "typeCodeSwift": "Überweisungsgutschrift",
                              "primanota": null,
                              "category": {
                                    "id": 526,
                                    "name": "Bareinzahlung",
                                    "parentId": 320,
                                    "parentName": "Einnahmen",
                                    "isCustom": false,
                                    "children": null
                              },
                              "labels": [],
                              "isPotentialDuplicate": false,
                              "isAdjustingEntry": false,
                              "isNew": true,
                              "importDate": "2018-07-10 05:48:22.000",
                              "children": null,
                              "paypalData": null
                        }, {
                              "id": 115372180,
                              "parentId": null,
                              "accountId": 548730,
                              "valueDate": "2015-01-10 00:00:00.000",
                              "bankBookingDate": "2015-01-10 00:00:00.000",
                              "finapiBookingDate": "2015-01-10 00:00:00.000",
                              "amount": -50,
                              "purpose": "Gewinnsparen",
                              "counterpartName": "VB Musterstadt",
                              "counterpartAccountNumber": "39985",
                              "counterpartIban": null,
                              "counterpartBlz": "70080000",
                              "counterpartBic": "DRESDEFF700",
                              "counterpartBankName": "Commerzbank vormals Dresdner Bank",
                              "counterpartMandateReference": null,
                              "counterpartCustomerReference": null,
                              "counterpartCreditorId": null,
                              "type": null,
                              "typeCodeZka": null,
                              "typeCodeSwift": "Überweisungsauftrag",
                              "primanota": null,
                              "category": {
                                    "id": 333,
                                    "name": "Bank & Kredit",
                                    "parentId": null,
                                    "parentName": null,
                                    "isCustom": false,
                                    "children": [334, 335, 338, 340, 527]
                              },
                              "labels": [],
                              "isPotentialDuplicate": false,
                              "isAdjustingEntry": false,
                              "isNew": true,
                              "importDate": "2018-07-10 05:48:22.000",
                              "children": null,
                              "paypalData": null
                        }, {
                              "id": 115372181,
                              "parentId": null,
                              "accountId": 548730,
                              "valueDate": "2015-01-11 00:00:00.000",
                              "bankBookingDate": "2015-01-11 00:00:00.000",
                              "finapiBookingDate": "2015-01-11 00:00:00.000",
                              "amount": 3,
                              "purpose": "HERZLICHEN GLÜCKWUNSCH ZU IHREM GEWINN LOS 0815",
                              "counterpartName": "VB Musterstadt",
                              "counterpartAccountNumber": "39985",
                              "counterpartIban": null,
                              "counterpartBlz": "70080000",
                              "counterpartBic": "DRESDEFF700",
                              "counterpartBankName": "Commerzbank vormals Dresdner Bank",
                              "counterpartMandateReference": null,
                              "counterpartCustomerReference": null,
                              "counterpartCreditorId": null,
                              "type": null,
                              "typeCodeZka": null,
                              "typeCodeSwift": "Überweisungsgutschrift",
                              "primanota": null,
                              "category": {
                                    "id": 324,
                                    "name": "Kapitaleinkommen",
                                    "parentId": 320,
                                    "parentName": "Einnahmen",
                                    "isCustom": false,
                                    "children": null
                              },
                              "labels": [],
                              "isPotentialDuplicate": false,
                              "isAdjustingEntry": false,
                              "isNew": true,
                              "importDate": "2018-07-10 05:48:22.000",
                              "children": null,
                              "paypalData": null
                        }, {
                              "id": 115372182,
                              "parentId": null,
                              "accountId": 548730,
                              "valueDate": "2015-01-12 00:00:00.000",
                              "bankBookingDate": "2015-01-12 00:00:00.000",
                              "finapiBookingDate": "2015-01-12 00:00:00.000",
                              "amount": -1325,
                              "purpose": "Miete Agnestr. 46",
                              "counterpartName": "Peter Schaller",
                              "counterpartAccountNumber": "777770",
                              "counterpartIban": "DE26700800000077777000",
                              "counterpartBlz": "70080000",
                              "counterpartBic": "DRESDEFF700",
                              "counterpartBankName": "Commerzbank vormals Dresdner Bank",
                              "counterpartMandateReference": null,
                              "counterpartCustomerReference": null,
                              "counterpartCreditorId": null,
                              "type": null,
                              "typeCodeZka": null,
                              "typeCodeSwift": "Überweisungsauftrag",
                              "primanota": null,
                              "category": {
                                    "id": 550,
                                    "name": "Miete / Wohngeld",
                                    "parentId": 426,
                                    "parentName": "Wohnen",
                                    "isCustom": false,
                                    "children": null
                              },
                              "labels": [],
                              "isPotentialDuplicate": false,
                              "isAdjustingEntry": false,
                              "isNew": true,
                              "importDate": "2018-07-10 05:48:22.000",
                              "children": null,
                              "paypalData": null
                        }, {
                              "id": 115372183,
                              "parentId": null,
                              "accountId": 548730,
                              "valueDate": "2015-01-13 00:00:00.000",
                              "bankBookingDate": "2015-01-13 00:00:00.000",
                              "finapiBookingDate": "2015-01-13 00:00:00.000",
                              "amount": -264.51,
                              "purpose": "Vielen Dank",
                              "counterpartName": "Gasthaus Chinesischer Turm",
                              "counterpartAccountNumber": "356872",
                              "counterpartIban": "DE77700800000035687200",
                              "counterpartBlz": "70080000",
                              "counterpartBic": "DRESDEFF700",
                              "counterpartBankName": "Commerzbank vormals Dresdner Bank",
                              "counterpartMandateReference": null,
                              "counterpartCustomerReference": null,
                              "counterpartCreditorId": null,
                              "type": null,
                              "typeCodeZka": null,
                              "typeCodeSwift": "Überweisungsauftrag",
                              "primanota": null,
                              "category": {
                                    "id": 378,
                                    "name": "Restaurant / Cafe / Bar",
                                    "parentId": 373,
                                    "parentName": "Freizeit, Hobbies & Soziales",
                                    "isCustom": false,
                                    "children": null
                              },
                              "labels": [],
                              "isPotentialDuplicate": false,
                              "isAdjustingEntry": false,
                              "isNew": true,
                              "importDate": "2018-07-10 05:48:22.000",
                              "children": null,
                              "paypalData": null
                        }, {
                              "id": 115372184,
                              "parentId": null,
                              "accountId": 548730,
                              "valueDate": "2015-01-14 00:00:00.000",
                              "bankBookingDate": "2015-01-14 00:00:00.000",
                              "finapiBookingDate": "2015-01-14 00:00:00.000",
                              "amount": -135.89,
                              "purpose": "4/302460/639",
                              "counterpartName": "ALLIANZ LV / FLESSA KG",
                              "counterpartAccountNumber": "1222210",
                              "counterpartIban": "DE93700800000122221000",
                              "counterpartBlz": "70080000",
                              "counterpartBic": "DRESDEFF700",
                              "counterpartBankName": "Commerzbank vormals Dresdner Bank",
                              "counterpartMandateReference": null,
                              "counterpartCustomerReference": null,
                              "counterpartCreditorId": null,
                              "type": null,
                              "typeCodeZka": null,
                              "typeCodeSwift": "Überweisungsauftrag",
                              "primanota": null,
                              "category": {
                                    "id": 418,
                                    "name": "Versicherung",
                                    "parentId": null,
                                    "parentName": null,
                                    "isCustom": false,
                                    "children": [419, 420, 421, 422, 423, 424, 425, 546, 547, 548, 549]
                              },
                              "labels": [],
                              "isPotentialDuplicate": false,
                              "isAdjustingEntry": false,
                              "isNew": true,
                              "importDate": "2018-07-10 05:48:22.000",
                              "children": null,
                              "paypalData": null
                        }, {
                              "id": 115372185,
                              "parentId": null,
                              "accountId": 548730,
                              "valueDate": "2015-01-15 00:00:00.000",
                              "bankBookingDate": "2015-01-15 00:00:00.000",
                              "finapiBookingDate": "2015-01-15 00:00:00.000",
                              "amount": -26.91,
                              "purpose": "Vielen Dank für Ihren Einkauf",
                              "counterpartName": "Aldi Sued",
                              "counterpartAccountNumber": "36985",
                              "counterpartIban": null,
                              "counterpartBlz": "70080000",
                              "counterpartBic": "DRESDEFF700",
                              "counterpartBankName": "Commerzbank vormals Dresdner Bank",
                              "counterpartMandateReference": null,
                              "counterpartCustomerReference": null,
                              "counterpartCreditorId": null,
                              "type": null,
                              "typeCodeZka": null,
                              "typeCodeSwift": "Überweisungsauftrag",
                              "primanota": null,
                              "category": {
                                    "id": 406,
                                    "name": "Lebensmittel & Getränke",
                                    "parentId": 401,
                                    "parentName": "Lebenshaltung",
                                    "isCustom": false,
                                    "children": null
                              },
                              "labels": [],
                              "isPotentialDuplicate": false,
                              "isAdjustingEntry": false,
                              "isNew": true,
                              "importDate": "2018-07-10 05:48:22.000",
                              "children": null,
                              "paypalData": null
                        }, {
                              "id": 115372186,
                              "parentId": null,
                              "accountId": 548730,
                              "valueDate": "2015-01-16 00:00:00.000",
                              "bankBookingDate": "2015-01-16 00:00:00.000",
                              "finapiBookingDate": "2015-01-16 00:00:00.000",
                              "amount": -350,
                              "purpose": "Übernachtung",
                              "counterpartName": "Hotel am Wasserturm Köln",
                              "counterpartAccountNumber": "232353",
                              "counterpartIban": "DE56700800000023235300",
                              "counterpartBlz": "70080000",
                              "counterpartBic": "DRESDEFF700",
                              "counterpartBankName": "Commerzbank vormals Dresdner Bank",
                              "counterpartMandateReference": null,
                              "counterpartCustomerReference": null,
                              "counterpartCreditorId": null,
                              "type": null,
                              "typeCodeZka": null,
                              "typeCodeSwift": "Überweisungsauftrag",
                              "primanota": null,
                              "category": {
                                    "id": 413,
                                    "name": "Hotel & Unterkunft",
                                    "parentId": 409,
                                    "parentName": "Reisen",
                                    "isCustom": false,
                                    "children": null
                              },
                              "labels": [],
                              "isPotentialDuplicate": false,
                              "isAdjustingEntry": false,
                              "isNew": true,
                              "importDate": "2018-07-10 05:48:22.000",
                              "children": null,
                              "paypalData": null
                        }, {
                              "id": 115372187,
                              "parentId": null,
                              "accountId": 548730,
                              "valueDate": "2015-01-17 00:00:00.000",
                              "bankBookingDate": "2015-01-17 00:00:00.000",
                              "finapiBookingDate": "2015-01-17 00:00:00.000",
                              "amount": -76.95,
                              "purpose": "Vielen Dank",
                              "counterpartName": "JET Tankstelle, Hohenlohe",
                              "counterpartAccountNumber": "1055545",
                              "counterpartIban": "DE80700800000105554500",
                              "counterpartBlz": "70080000",
                              "counterpartBic": "DRESDEFF700",
                              "counterpartBankName": "Commerzbank vormals Dresdner Bank",
                              "counterpartMandateReference": null,
                              "counterpartCustomerReference": null,
                              "counterpartCreditorId": null,
                              "type": null,
                              "typeCodeZka": null,
                              "typeCodeSwift": "Überweisungsauftrag",
                              "primanota": null,
                              "category": {
                                    "id": 308,
                                    "name": "Tanken",
                                    "parentId": 301,
                                    "parentName": "Mobilität",
                                    "isCustom": false,
                                    "children": null
                              },
                              "labels": [],
                              "isPotentialDuplicate": false,
                              "isAdjustingEntry": false,
                              "isNew": true,
                              "importDate": "2018-07-10 05:48:22.000",
                              "children": null,
                              "paypalData": null
                        }, {
                              "id": 115372188,
                              "parentId": null,
                              "accountId": 548730,
                              "valueDate": "2015-01-18 00:00:00.000",
                              "bankBookingDate": "2015-01-18 00:00:00.000",
                              "finapiBookingDate": "2015-01-18 00:00:00.000",
                              "amount": -150,
                              "purpose": "GA 470/11",
                              "counterpartName": "Barabhebung",
                              "counterpartAccountNumber": "569",
                              "counterpartIban": "DE90700800000000000569",
                              "counterpartBlz": "70080000",
                              "counterpartBic": "DRESDEFF700",
                              "counterpartBankName": "Commerzbank vormals Dresdner Bank",
                              "counterpartMandateReference": null,
                              "counterpartCustomerReference": null,
                              "counterpartCreditorId": null,
                              "type": null,
                              "typeCodeZka": null,
                              "typeCodeSwift": "Überweisungsauftrag",
                              "primanota": null,
                              "category": {
                                    "id": 335,
                                    "name": "Barauszahlung",
                                    "parentId": 333,
                                    "parentName": "Bank & Kredit",
                                    "isCustom": false,
                                    "children": null
                              },
                              "labels": [],
                              "isPotentialDuplicate": false,
                              "isAdjustingEntry": false,
                              "isNew": true,
                              "importDate": "2018-07-10 05:48:22.000",
                              "children": null,
                              "paypalData": null
                        }],
                        "paging": {
                              "page": 1,
                              "perPage": 25,
                              "pageCount": 56,
                              "totalCount": 1385
                        }
                  }
            },
            "import": {},
            "error": null
      }
}
